\relax 
\providecommand\hyper@newdestlabel[2]{}
\providecommand\HyperFirstAtBeginDocument{\AtBeginDocument}
\HyperFirstAtBeginDocument{\ifx\hyper@anchor\@undefined
\global\let\oldcontentsline\contentsline
\gdef\contentsline#1#2#3#4{\oldcontentsline{#1}{#2}{#3}}
\global\let\oldnewlabel\newlabel
\gdef\newlabel#1#2{\newlabelxx{#1}#2}
\gdef\newlabelxx#1#2#3#4#5#6{\oldnewlabel{#1}{{#2}{#3}}}
\AtEndDocument{\ifx\hyper@anchor\@undefined
\let\contentsline\oldcontentsline
\let\newlabel\oldnewlabel
\fi}
\fi}
\global\let\hyper@last\relax 
\gdef\HyperFirstAtBeginDocument#1{#1}
\providecommand*\HyPL@Entry[1]{}
\HyPL@Entry{0<</S/D>>}
\selectlanguage *{spanish}
\@writefile{toc}{\selectlanguage *{spanish}}
\@writefile{lof}{\selectlanguage *{spanish}}
\@writefile{lot}{\selectlanguage *{spanish}}
\newlabel{fig:comic2}{{}{2}{}{Doc-Start}{}}
\@writefile{toc}{\contentsline {part}{I\hspace  {1em}Introducción}{6}{part.1}\protected@file@percent }
\@writefile{toc}{\contentsline {chapter}{\numberline {1}Una historia sobre distros}{7}{chapter.1}\protected@file@percent }
\@writefile{lof}{\addvspace {10\p@ }}
\@writefile{lot}{\addvspace {10\p@ }}
\newlabel{fig:comic1}{{1}{7}{Una historia sobre distros}{chapter.1}{}}
\@writefile{toc}{\contentsline {chapter}{\numberline {2}¿Por qué usar Linux?}{9}{chapter.2}\protected@file@percent }
\@writefile{lof}{\addvspace {10\p@ }}
\@writefile{lot}{\addvspace {10\p@ }}
\@writefile{toc}{\contentsline {chapter}{\numberline {3}Sobre distros y escritorios}{12}{chapter.3}\protected@file@percent }
\@writefile{lof}{\addvspace {10\p@ }}
\@writefile{lot}{\addvspace {10\p@ }}
\@writefile{lof}{\contentsline {figure}{\numberline {3.1}{\ignorespaces Ubuntu Gnome}}{13}{figure.3.1}\protected@file@percent }
\newlabel{fig:ubuntu_gonome}{{3.1}{13}{Ubuntu Gnome}{figure.3.1}{}}
\@writefile{lof}{\contentsline {figure}{\numberline {3.2}{\ignorespaces Debian Gnome}}{13}{figure.3.2}\protected@file@percent }
\newlabel{fig:debian_gnome}{{3.2}{13}{Debian Gnome}{figure.3.2}{}}
\@writefile{lof}{\contentsline {figure}{\numberline {3.3}{\ignorespaces Lubuntu LXDE}}{14}{figure.3.3}\protected@file@percent }
\newlabel{fig:lubuntu}{{3.3}{14}{Lubuntu LXDE}{figure.3.3}{}}
\@writefile{lof}{\contentsline {figure}{\numberline {3.4}{\ignorespaces Debian LXDE}}{14}{figure.3.4}\protected@file@percent }
\newlabel{fig:debian_lxde}{{3.4}{14}{Debian LXDE}{figure.3.4}{}}
\@writefile{lof}{\contentsline {figure}{\numberline {3.5}{\ignorespaces Debian Cinnamon}}{15}{figure.3.5}\protected@file@percent }
\newlabel{fig:debian_cinnamon}{{3.5}{15}{Debian Cinnamon}{figure.3.5}{}}
\@writefile{lof}{\contentsline {figure}{\numberline {3.6}{\ignorespaces Debian Mate}}{15}{figure.3.6}\protected@file@percent }
\newlabel{fig:debian_mate}{{3.6}{15}{Debian Mate}{figure.3.6}{}}
\@writefile{lof}{\contentsline {figure}{\numberline {3.7}{\ignorespaces Debian XFCE}}{15}{figure.3.7}\protected@file@percent }
\newlabel{fig:debian_xfce}{{3.7}{15}{Debian XFCE}{figure.3.7}{}}
\@writefile{toc}{\contentsline {chapter}{\numberline {4}Consejos para la instalación}{16}{chapter.4}\protected@file@percent }
\@writefile{lof}{\addvspace {10\p@ }}
\@writefile{lot}{\addvspace {10\p@ }}
\@writefile{toc}{\contentsline {part}{II\hspace  {1em}Sobre las Distros}{19}{part.2}\protected@file@percent }
\@writefile{toc}{\contentsline {chapter}{\numberline {5}Introducción a la segunda parte}{20}{chapter.5}\protected@file@percent }
\@writefile{lof}{\addvspace {10\p@ }}
\@writefile{lot}{\addvspace {10\p@ }}
\@writefile{toc}{\contentsline {chapter}{\numberline {6}Debian}{24}{chapter.6}\protected@file@percent }
\@writefile{lof}{\addvspace {10\p@ }}
\@writefile{lot}{\addvspace {10\p@ }}
\@writefile{lof}{\contentsline {figure}{\numberline {6.1}{\ignorespaces }}{24}{figure.6.1}\protected@file@percent }
\newlabel{fig:debian1}{{6.1}{24}{}{figure.6.1}{}}
\@writefile{lof}{\contentsline {figure}{\numberline {6.2}{\ignorespaces }}{25}{figure.6.2}\protected@file@percent }
\newlabel{fig:debian2}{{6.2}{25}{}{figure.6.2}{}}
\@writefile{lof}{\contentsline {figure}{\numberline {6.3}{\ignorespaces  \href  {https://lubuntu.net/}{https://lubuntu.net/}}}{26}{figure.6.3}\protected@file@percent }
\newlabel{fig:lubuntu1}{{6.3}{26}{\href {https://lubuntu.net/}{https://lubuntu.net/}}{figure.6.3}{}}
\@writefile{lof}{\contentsline {figure}{\numberline {6.4}{\ignorespaces  \href  {https://lubuntu.net/}{https://lubuntu.net/}}}{26}{figure.6.4}\protected@file@percent }
\newlabel{fig:lubuntu2}{{6.4}{26}{\href {https://lubuntu.net/}{https://lubuntu.net/}}{figure.6.4}{}}
\@writefile{toc}{\contentsline {chapter}{\numberline {7}Ubuntu}{30}{chapter.7}\protected@file@percent }
\@writefile{lof}{\addvspace {10\p@ }}
\@writefile{lot}{\addvspace {10\p@ }}
\@writefile{toc}{\contentsline {chapter}{\numberline {8}Fedora}{37}{chapter.8}\protected@file@percent }
\@writefile{lof}{\addvspace {10\p@ }}
\@writefile{lot}{\addvspace {10\p@ }}
\@writefile{lof}{\contentsline {figure}{\numberline {8.1}{\ignorespaces escritorio GNOME 3 en una distro FEDORA (enlace de la imagen: https://getfedora.org/es/workstation/)}}{37}{figure.8.1}\protected@file@percent }
\newlabel{fig:fedora}{{8.1}{37}{escritorio GNOME 3 en una distro FEDORA (enlace de la imagen: https://getfedora.org/es/workstation/)}{figure.8.1}{}}
\@writefile{lof}{\contentsline {figure}{\numberline {8.2}{\ignorespaces Entorno gráfico de PUPPY LINUX (enlace de la imagen: http://puppylinux.com/screenshots/fossadusk.jpg )}}{40}{figure.8.2}\protected@file@percent }
\newlabel{fig:puppy}{{8.2}{40}{Entorno gráfico de PUPPY LINUX (enlace de la imagen: http://puppylinux.com/screenshots/fossadusk.jpg )}{figure.8.2}{}}
\@writefile{lof}{\contentsline {figure}{\numberline {8.3}{\ignorespaces vista del entorno SUGAR ( enlace de la imagen: https://spins.fedoraproject.org/es/soas/)}}{41}{figure.8.3}\protected@file@percent }
\newlabel{fig:sugar}{{8.3}{41}{vista del entorno SUGAR ( enlace de la imagen: https://spins.fedoraproject.org/es/soas/)}{figure.8.3}{}}
\@writefile{toc}{\contentsline {chapter}{\numberline {9}Xubuntu}{44}{chapter.9}\protected@file@percent }
\@writefile{lof}{\addvspace {10\p@ }}
\@writefile{lot}{\addvspace {10\p@ }}
\@writefile{lof}{\contentsline {figure}{\numberline {9.1}{\ignorespaces Viejo logo de XFCE y Nuevo logo de XFCE}}{44}{figure.9.1}\protected@file@percent }
\newlabel{fig:xubuntu1}{{9.1}{44}{Viejo logo de XFCE y Nuevo logo de XFCE}{figure.9.1}{}}
\@writefile{lof}{\contentsline {figure}{\numberline {9.2}{\ignorespaces Mi PC se ve así}}{45}{figure.9.2}\protected@file@percent }
\newlabel{fig:xubuntu2}{{9.2}{45}{Mi PC se ve así}{figure.9.2}{}}
\@writefile{lof}{\contentsline {figure}{\numberline {9.3}{\ignorespaces Pero un xubuntu recién instalado se ve parecido a esto}}{45}{figure.9.3}\protected@file@percent }
\newlabel{fig:xubuntu3}{{9.3}{45}{Pero un xubuntu recién instalado se ve parecido a esto}{figure.9.3}{}}
\@writefile{toc}{\contentsline {chapter}{\numberline {10}Manjaro}{51}{chapter.10}\protected@file@percent }
\@writefile{lof}{\addvspace {10\p@ }}
\@writefile{lot}{\addvspace {10\p@ }}
\@writefile{lof}{\contentsline {figure}{\numberline {10.1}{\ignorespaces Entorno de escritorio de Manjaro}}{51}{figure.10.1}\protected@file@percent }
\newlabel{fig:manjaro1}{{10.1}{51}{Entorno de escritorio de Manjaro}{figure.10.1}{}}
\@writefile{lof}{\contentsline {figure}{\numberline {10.2}{\ignorespaces Programas y Menú Inicio de Manjaro}}{53}{figure.10.2}\protected@file@percent }
\newlabel{fig:manjaro2}{{10.2}{53}{Programas y Menú Inicio de Manjaro}{figure.10.2}{}}
\@writefile{lof}{\contentsline {figure}{\numberline {10.3}{\ignorespaces Administrador de archivos Thunar}}{54}{figure.10.3}\protected@file@percent }
\newlabel{fig:manjaro3}{{10.3}{54}{Administrador de archivos Thunar}{figure.10.3}{}}
\@writefile{lof}{\contentsline {figure}{\numberline {10.4}{\ignorespaces Navegador Firefox}}{55}{figure.10.4}\protected@file@percent }
\newlabel{fig:manjaro4}{{10.4}{55}{Navegador Firefox}{figure.10.4}{}}
\@writefile{lof}{\contentsline {figure}{\numberline {10.5}{\ignorespaces Agregar o quitar programas en Manjaro}}{57}{figure.10.5}\protected@file@percent }
\newlabel{fig:manjaro5}{{10.5}{57}{Agregar o quitar programas en Manjaro}{figure.10.5}{}}
\@writefile{lof}{\contentsline {figure}{\numberline {10.6}{\ignorespaces Entorno de escritorio Antix}}{59}{figure.10.6}\protected@file@percent }
\newlabel{fig:manjaroantix}{{10.6}{59}{Entorno de escritorio Antix}{figure.10.6}{}}
\@writefile{lof}{\contentsline {figure}{\numberline {10.7}{\ignorespaces Entorno de escritorio Mint Xfce}}{60}{figure.10.7}\protected@file@percent }
\newlabel{fig:manjaromintxfce}{{10.7}{60}{Entorno de escritorio Mint Xfce}{figure.10.7}{}}
\@writefile{lof}{\contentsline {figure}{\numberline {10.8}{\ignorespaces Lista de herramientas libres para educación de CEDEC}}{61}{figure.10.8}\protected@file@percent }
\newlabel{fig:manjarolibretools}{{10.8}{61}{Lista de herramientas libres para educación de CEDEC}{figure.10.8}{}}
\@writefile{toc}{\contentsline {chapter}{\numberline {11}Mint MATE}{64}{chapter.11}\protected@file@percent }
\@writefile{lof}{\addvspace {10\p@ }}
\@writefile{lot}{\addvspace {10\p@ }}
\@writefile{lof}{\contentsline {figure}{\numberline {11.1}{\ignorespaces MINT MATE}}{66}{figure.11.1}\protected@file@percent }
\newlabel{fig:mint1}{{11.1}{66}{MINT MATE}{figure.11.1}{}}
\@writefile{lof}{\contentsline {figure}{\numberline {11.2}{\ignorespaces MINT MATE}}{66}{figure.11.2}\protected@file@percent }
\newlabel{fig:mint2}{{11.2}{66}{MINT MATE}{figure.11.2}{}}
\@writefile{lof}{\contentsline {figure}{\numberline {11.3}{\ignorespaces Gestor de archivos}}{67}{figure.11.3}\protected@file@percent }
\newlabel{fig:mint3}{{11.3}{67}{Gestor de archivos}{figure.11.3}{}}
\@writefile{lof}{\contentsline {figure}{\numberline {11.4}{\ignorespaces Navegador}}{67}{figure.11.4}\protected@file@percent }
\newlabel{fig:mint4}{{11.4}{67}{Navegador}{figure.11.4}{}}
\@writefile{lof}{\contentsline {figure}{\numberline {11.5}{\ignorespaces Configuraciones}}{68}{figure.11.5}\protected@file@percent }
\newlabel{fig:mint5}{{11.5}{68}{Configuraciones}{figure.11.5}{}}
\@writefile{lof}{\contentsline {figure}{\numberline {11.6}{\ignorespaces Centro de control}}{68}{figure.11.6}\protected@file@percent }
\newlabel{fig:mint6}{{11.6}{68}{Centro de control}{figure.11.6}{}}
\@writefile{lof}{\contentsline {figure}{\numberline {11.7}{\ignorespaces El menú de lugares}}{69}{figure.11.7}\protected@file@percent }
\newlabel{fig:mint7}{{11.7}{69}{El menú de lugares}{figure.11.7}{}}
\@writefile{lof}{\contentsline {figure}{\numberline {11.8}{\ignorespaces Accesorios}}{70}{figure.11.8}\protected@file@percent }
\newlabel{fig:mint8}{{11.8}{70}{Accesorios}{figure.11.8}{}}
\@writefile{lof}{\contentsline {figure}{\numberline {11.9}{\ignorespaces Terminal GNU/Linux}}{72}{figure.11.9}\protected@file@percent }
\newlabel{fig:mint9}{{11.9}{72}{Terminal GNU/Linux}{figure.11.9}{}}
\@writefile{lof}{\contentsline {figure}{\numberline {11.10}{\ignorespaces Synaptic}}{72}{figure.11.10}\protected@file@percent }
\newlabel{fig:mint10}{{11.10}{72}{Synaptic}{figure.11.10}{}}
\@writefile{lof}{\contentsline {figure}{\numberline {11.11}{\ignorespaces Gestor de software}}{73}{figure.11.11}\protected@file@percent }
\newlabel{fig:mint11}{{11.11}{73}{Gestor de software}{figure.11.11}{}}
\@writefile{lof}{\contentsline {figure}{\numberline {11.12}{\ignorespaces Gdebi}}{74}{figure.11.12}\protected@file@percent }
\newlabel{fig:mint12}{{11.12}{74}{Gdebi}{figure.11.12}{}}
\@writefile{toc}{\contentsline {chapter}{\numberline {12}Huayra}{76}{chapter.12}\protected@file@percent }
\@writefile{lof}{\addvspace {10\p@ }}
\@writefile{lot}{\addvspace {10\p@ }}
\@writefile{lof}{\contentsline {figure}{\numberline {12.1}{\ignorespaces Huayra GNU/Linux}}{76}{figure.12.1}\protected@file@percent }
\newlabel{fig:huayra1}{{12.1}{76}{Huayra GNU/Linux}{figure.12.1}{}}
\@writefile{lof}{\contentsline {figure}{\numberline {12.2}{\ignorespaces Menú de aplicaciones de Huayra}}{78}{figure.12.2}\protected@file@percent }
\newlabel{fig:huayra2}{{12.2}{78}{Menú de aplicaciones de Huayra}{figure.12.2}{}}
\@writefile{lof}{\contentsline {figure}{\numberline {12.3}{\ignorespaces Lugares}}{79}{figure.12.3}\protected@file@percent }
\newlabel{fig:huayra4}{{12.3}{79}{Lugares}{figure.12.3}{}}
\@writefile{lof}{\contentsline {figure}{\numberline {12.4}{\ignorespaces Menú de apariencia}}{80}{figure.12.4}\protected@file@percent }
\newlabel{fig:huayra5}{{12.4}{80}{Menú de apariencia}{figure.12.4}{}}
\@writefile{lof}{\contentsline {figure}{\numberline {12.5}{\ignorespaces Synaptic}}{82}{figure.12.5}\protected@file@percent }
\newlabel{fig:huayra6}{{12.5}{82}{Synaptic}{figure.12.5}{}}
\@writefile{toc}{\contentsline {chapter}{\numberline {13}Trisquel}{84}{chapter.13}\protected@file@percent }
\@writefile{lof}{\addvspace {10\p@ }}
\@writefile{lot}{\addvspace {10\p@ }}
\@writefile{lof}{\contentsline {figure}{\numberline {13.1}{\ignorespaces \href  {https://www.linuxmint.com/pictures/screenshots/ulyssa/xfce.png}{https://www.linuxmint.com/pictures/screenshots/ulyssa/xfce.png}}}{85}{figure.13.1}\protected@file@percent }
\newlabel{fig:trisquel1}{{13.1}{85}{\href {https://www.linuxmint.com/pictures/screenshots/ulyssa/xfce.png}{https://www.linuxmint.com/pictures/screenshots/ulyssa/xfce.png}}{figure.13.1}{}}
\@writefile{lof}{\contentsline {figure}{\numberline {13.2}{\ignorespaces Escritorio Mate}}{87}{figure.13.2}\protected@file@percent }
\newlabel{fig:trisquel2}{{13.2}{87}{Escritorio Mate}{figure.13.2}{}}
\@writefile{lof}{\contentsline {figure}{\numberline {13.3}{\ignorespaces Elegir el programa y dar aplicar cambios.}}{88}{figure.13.3}\protected@file@percent }
\newlabel{fig:trisquel3}{{13.3}{88}{Elegir el programa y dar aplicar cambios}{figure.13.3}{}}
\@writefile{lof}{\contentsline {figure}{\numberline {13.4}{\ignorespaces KDE}}{88}{figure.13.4}\protected@file@percent }
\newlabel{fig:trisquel4}{{13.4}{88}{KDE}{figure.13.4}{}}
\@writefile{toc}{\contentsline {chapter}{\numberline {14}Preguntas Frecuentes}{92}{chapter.14}\protected@file@percent }
\@writefile{lof}{\addvspace {10\p@ }}
\@writefile{lot}{\addvspace {10\p@ }}
\@writefile{lof}{\contentsline {figure}{\numberline {14.1}{\ignorespaces Ejemplo de búsqueda de las licencias en la página de la Wikipedia de Microsoft Word y Mozilla Firefox Respectivamente}}{93}{figure.14.1}\protected@file@percent }
\newlabel{fig:licencias}{{14.1}{93}{Ejemplo de búsqueda de las licencias en la página de la Wikipedia de Microsoft Word y Mozilla Firefox Respectivamente}{figure.14.1}{}}
\@writefile{lof}{\contentsline {figure}{\numberline {14.2}{\ignorespaces }}{93}{figure.14.2}\protected@file@percent }
\newlabel{fig:librenolibre}{{14.2}{93}{}{figure.14.2}{}}
\@writefile{lof}{\contentsline {figure}{\numberline {14.3}{\ignorespaces }}{95}{figure.14.3}\protected@file@percent }
\newlabel{fig:word1}{{14.3}{95}{}{figure.14.3}{}}
\@writefile{toc}{\contentsline {chapter}{\numberline {15}Glosario.}{98}{chapter.15}\protected@file@percent }
\@writefile{lof}{\addvspace {10\p@ }}
\@writefile{lot}{\addvspace {10\p@ }}
